%YAML 1.1
%TAG !u! tag:unity3d.com,2011:
--- !u!29 &1
OcclusionCullingSettings:
  m_ObjectHideFlags: 0
  serializedVersion: 2
  m_OcclusionBakeSettings:
    smallestOccluder: 5
    smallestHole: 0.25
    backfaceThreshold: 100
  m_SceneGUID: 00000000000000000000000000000000
  m_OcclusionCullingData: {fileID: 0}
--- !u!104 &2
RenderSettings:
  m_ObjectHideFlags: 0
  serializedVersion: 8
  m_Fog: 0
  m_FogColor: {r: 0.5, g: 0.5, b: 0.5, a: 1}
  m_FogMode: 3
  m_FogDensity: 0.01
  m_LinearFogStart: 0
  m_LinearFogEnd: 300
  m_AmbientSkyColor: {r: 0.2, g: 0.2, b: 0.2, a: 1}
  m_AmbientEquatorColor: {r: 0.2, g: 0.2, b: 0.2, a: 1}
  m_AmbientGroundColor: {r: 0.2, g: 0.2, b: 0.2, a: 1}
  m_AmbientIntensity: 1
  m_AmbientMode: 3
  m_SubtractiveShadowColor: {r: 0.42, g: 0.478, b: 0.627, a: 1}
  m_SkyboxMaterial: {fileID: 0}
  m_HaloStrength: 0.5
  m_FlareStrength: 1
  m_FlareFadeSpeed: 3
  m_HaloTexture: {fileID: 0}
  m_SpotCookie: {fileID: 10001, guid: 0000000000000000e000000000000000, type: 0}
  m_DefaultReflectionMode: 0
  m_DefaultReflectionResolution: 128
  m_ReflectionBounces: 1
  m_ReflectionIntensity: 1
  m_CustomReflection: {fileID: 0}
  m_Sun: {fileID: 0}
  m_IndirectSpecularColor: {r: 0, g: 0, b: 0, a: 1}
--- !u!157 &4
LightmapSettings:
  m_ObjectHideFlags: 0
  serializedVersion: 11
  m_GIWorkflowMode: 1
  m_GISettings:
    serializedVersion: 2
    m_BounceScale: 1
    m_IndirectOutputScale: 1
    m_AlbedoBoost: 1
    m_TemporalCoherenceThreshold: 1
    m_EnvironmentLightingMode: 0
    m_EnableBakedLightmaps: 1
    m_EnableRealtimeLightmaps: 0
  m_LightmapEditorSettings:
    serializedVersion: 9
    m_Resolution: 1
    m_BakeResolution: 50
    m_TextureWidth: 1024
    m_TextureHeight: 1024
    m_AO: 1
    m_AOMaxDistance: 1
    m_CompAOExponent: 1
    m_CompAOExponentDirect: 0
    m_Padding: 2
    m_LightmapParameters: {fileID: 0}
    m_LightmapsBakeMode: 1
    m_TextureCompression: 0
    m_FinalGather: 0
    m_FinalGatherFiltering: 1
    m_FinalGatherRayCount: 256
    m_ReflectionCompression: 2
    m_MixedBakeMode: 1
    m_BakeBackend: 0
    m_PVRSampling: 1
    m_PVRDirectSampleCount: 32
    m_PVRSampleCount: 500
    m_PVRBounces: 2
    m_PVRFilterTypeDirect: 0
    m_PVRFilterTypeIndirect: 0
    m_PVRFilterTypeAO: 0
    m_PVRFilteringMode: 0
    m_PVRCulling: 1
    m_PVRFilteringGaussRadiusDirect: 1
    m_PVRFilteringGaussRadiusIndirect: 5
    m_PVRFilteringGaussRadiusAO: 2
    m_PVRFilteringAtrousPositionSigmaDirect: 0.5
    m_PVRFilteringAtrousPositionSigmaIndirect: 2
    m_PVRFilteringAtrousPositionSigmaAO: 1
    m_ShowResolutionOverlay: 1
  m_LightingDataAsset: {fileID: 0}
  m_UseShadowmask: 0
--- !u!196 &5
NavMeshSettings:
  serializedVersion: 2
  m_ObjectHideFlags: 0
  m_BuildSettings:
    serializedVersion: 2
    agentTypeID: 0
    agentRadius: 0.5
    agentHeight: 2
    agentSlope: 45
    agentClimb: 0.4
    ledgeDropHeight: 0
    maxJumpAcrossDistance: 0
    minRegionArea: 2
    manualCellSize: 0
    cellSize: 0.16666666
    manualTileSize: 0
    tileSize: 256
    accuratePlacement: 0
    debug:
      m_Flags: 0
  m_NavMeshData: {fileID: 0}
--- !u!1 &134996022
GameObject:
  m_ObjectHideFlags: 0
  m_PrefabParentObject: {fileID: 100000, guid: cc934f51fc632524786844dca51b4475, type: 2}
  m_PrefabInternal: {fileID: 1548335487}
  serializedVersion: 5
  m_Component:
  - component: {fileID: 134996024}
  - component: {fileID: 134996023}
  m_Layer: 8
  m_Name: SkyTileSprite
  m_TagString: Scenery
  m_Icon: {fileID: 0}
  m_NavMeshLayer: 0
  m_StaticEditorFlags: 0
  m_IsActive: 1
--- !u!212 &134996023
SpriteRenderer:
  m_ObjectHideFlags: 0
  m_PrefabParentObject: {fileID: 21200000, guid: cc934f51fc632524786844dca51b4475,
    type: 2}
  m_PrefabInternal: {fileID: 1548335487}
  m_GameObject: {fileID: 134996022}
  m_Enabled: 1
  m_CastShadows: 0
  m_ReceiveShadows: 0
  m_DynamicOccludee: 1
  m_MotionVectors: 1
  m_LightProbeUsage: 0
  m_ReflectionProbeUsage: 1
  m_Materials:
  - {fileID: 10754, guid: 0000000000000000f000000000000000, type: 0}
  m_StaticBatchInfo:
    firstSubMesh: 0
    subMeshCount: 0
  m_StaticBatchRoot: {fileID: 0}
  m_ProbeAnchor: {fileID: 0}
  m_LightProbeVolumeOverride: {fileID: 0}
  m_ScaleInLightmap: 1
  m_PreserveUVs: 0
  m_IgnoreNormalsForChartDetection: 0
  m_ImportantGI: 0
  m_StitchLightmapSeams: 0
  m_SelectedEditorRenderState: 0
  m_MinimumChartSize: 4
  m_AutoUVMaxDistance: 0.5
  m_AutoUVMaxAngle: 89
  m_LightmapParameters: {fileID: 0}
  m_SortingLayerID: 0
  m_SortingLayer: 0
  m_SortingOrder: 0
  m_Sprite: {fileID: 21300000, guid: 5ad00495542ee412cbfd6988b3c7973a, type: 3}
  m_Color: {r: 1, g: 1, b: 1, a: 1}
  m_FlipX: 0
  m_FlipY: 0
  m_DrawMode: 0
  m_Size: {x: 1, y: 1}
  m_AdaptiveModeThreshold: 0.5
  m_SpriteTileMode: 0
  m_WasSpriteAssigned: 1
  m_MaskInteraction: 0
--- !u!4 &134996024
Transform:
  m_ObjectHideFlags: 0
  m_PrefabParentObject: {fileID: 400000, guid: cc934f51fc632524786844dca51b4475, type: 2}
  m_PrefabInternal: {fileID: 1548335487}
  m_GameObject: {fileID: 134996022}
  m_LocalRotation: {x: 0, y: 0, z: 0, w: 1}
  m_LocalPosition: {x: 0, y: 2.2, z: 0}
  m_LocalScale: {x: 1, y: 1, z: 1}
  m_Children: []
  m_Father: {fileID: 1294999833}
  m_RootOrder: 0
  m_LocalEulerAnglesHint: {x: 0, y: 0, z: 0}
--- !u!1 &417435834
GameObject:
  m_ObjectHideFlags: 0
  m_PrefabParentObject: {fileID: 100002, guid: cc934f51fc632524786844dca51b4475, type: 2}
  m_PrefabInternal: {fileID: 1548335487}
  serializedVersion: 5
  m_Component:
  - component: {fileID: 417435835}
  m_Layer: 0
  m_Name: Scenery
  m_TagString: Untagged
  m_Icon: {fileID: 0}
  m_NavMeshLayer: 0
  m_StaticEditorFlags: 0
  m_IsActive: 1
--- !u!4 &417435835
Transform:
  m_ObjectHideFlags: 0
  m_PrefabParentObject: {fileID: 400002, guid: cc934f51fc632524786844dca51b4475, type: 2}
  m_PrefabInternal: {fileID: 1548335487}
  m_GameObject: {fileID: 417435834}
  m_LocalRotation: {x: 0, y: 0, z: 0, w: 1}
  m_LocalPosition: {x: 0, y: 0, z: 0}
  m_LocalScale: {x: 1, y: 1, z: 1}
  m_Children:
  - {fileID: 457543988}
  - {fileID: 1294999833}
  m_Father: {fileID: 0}
  m_RootOrder: 3
  m_LocalEulerAnglesHint: {x: 0, y: 0, z: 0}
--- !u!1 &457543984
GameObject:
  m_ObjectHideFlags: 0
  m_PrefabParentObject: {fileID: 100004, guid: cc934f51fc632524786844dca51b4475, type: 2}
  m_PrefabInternal: {fileID: 1548335487}
  serializedVersion: 5
  m_Component:
  - component: {fileID: 457543988}
  - component: {fileID: 457543987}
  - component: {fileID: 457543985}
  m_Layer: 8
  m_Name: Ground
  m_TagString: Scenery
  m_Icon: {fileID: 0}
  m_NavMeshLayer: 0
  m_StaticEditorFlags: 0
  m_IsActive: 1
--- !u!61 &457543985
BoxCollider2D:
  m_ObjectHideFlags: 0
  m_PrefabParentObject: {fileID: 6100000, guid: cc934f51fc632524786844dca51b4475,
    type: 2}
  m_PrefabInternal: {fileID: 1548335487}
  m_GameObject: {fileID: 457543984}
  m_Enabled: 1
  m_Density: 1
  m_Material: {fileID: 0}
  m_IsTrigger: 0
  m_UsedByEffector: 0
  m_UsedByComposite: 0
  m_Offset: {x: 0, y: -0.99}
  m_SpriteTilingProperty:
    border: {x: 0, y: 0, z: 0, w: 0}
    pivot: {x: 0.5, y: 0.5}
    oldSize: {x: 27.306667, y: 6.826667}
    newSize: {x: 1, y: 1}
    adaptiveTilingThreshold: 0.5
    drawMode: 0
    adaptiveTiling: 0
  m_AutoTiling: 0
  serializedVersion: 2
  m_Size: {x: 27.306667, y: 1.62}
  m_EdgeRadius: 0
--- !u!212 &457543987
SpriteRenderer:
  m_ObjectHideFlags: 0
  m_PrefabParentObject: {fileID: 21200002, guid: cc934f51fc632524786844dca51b4475,
    type: 2}
  m_PrefabInternal: {fileID: 1548335487}
  m_GameObject: {fileID: 457543984}
  m_Enabled: 1
  m_CastShadows: 0
  m_ReceiveShadows: 0
  m_DynamicOccludee: 1
  m_MotionVectors: 1
  m_LightProbeUsage: 0
  m_ReflectionProbeUsage: 1
  m_Materials:
  - {fileID: 10754, guid: 0000000000000000f000000000000000, type: 0}
  m_StaticBatchInfo:
    firstSubMesh: 0
    subMeshCount: 0
  m_StaticBatchRoot: {fileID: 0}
  m_ProbeAnchor: {fileID: 0}
  m_LightProbeVolumeOverride: {fileID: 0}
  m_ScaleInLightmap: 1
  m_PreserveUVs: 0
  m_IgnoreNormalsForChartDetection: 0
  m_ImportantGI: 0
  m_StitchLightmapSeams: 0
  m_SelectedEditorRenderState: 0
  m_MinimumChartSize: 4
  m_AutoUVMaxDistance: 0.5
  m_AutoUVMaxAngle: 89
  m_LightmapParameters: {fileID: 0}
  m_SortingLayerID: 404910065
  m_SortingLayer: 0
  m_SortingOrder: 0
  m_Sprite: {fileID: 21300000, guid: 8eeaba973de60134fb7f7fb68863fe5b, type: 3}
  m_Color: {r: 1, g: 1, b: 1, a: 1}
  m_FlipX: 0
  m_FlipY: 0
  m_DrawMode: 0
  m_Size: {x: 1, y: 1}
  m_AdaptiveModeThreshold: 0.5
  m_SpriteTileMode: 0
  m_WasSpriteAssigned: 1
  m_MaskInteraction: 0
--- !u!4 &457543988
Transform:
  m_ObjectHideFlags: 0
  m_PrefabParentObject: {fileID: 400004, guid: cc934f51fc632524786844dca51b4475, type: 2}
  m_PrefabInternal: {fileID: 1548335487}
  m_GameObject: {fileID: 457543984}
  m_LocalRotation: {x: 0, y: 0, z: 0, w: 1}
  m_LocalPosition: {x: 31.3, y: -2, z: 0}
  m_LocalScale: {x: 1, y: 1, z: 1}
  m_Children:
  - {fileID: 1576888524}
  m_Father: {fileID: 417435835}
  m_RootOrder: 0
  m_LocalEulerAnglesHint: {x: 0, y: 0, z: 0}
--- !u!1001 &814021708
Prefab:
  m_ObjectHideFlags: 0
  serializedVersion: 2
  m_Modification:
    m_TransformParent: {fileID: 0}
    m_Modifications:
    - target: {fileID: 400000, guid: 391c165bd56fb1849ba1e689e121d662, type: 2}
      propertyPath: m_LocalPosition.x
      value: 0
      objectReference: {fileID: 0}
    - target: {fileID: 400000, guid: 391c165bd56fb1849ba1e689e121d662, type: 2}
      propertyPath: m_LocalPosition.y
      value: 0
      objectReference: {fileID: 0}
    - target: {fileID: 400000, guid: 391c165bd56fb1849ba1e689e121d662, type: 2}
      propertyPath: m_LocalPosition.z
      value: 0
      objectReference: {fileID: 0}
    - target: {fileID: 400000, guid: 391c165bd56fb1849ba1e689e121d662, type: 2}
      propertyPath: m_LocalRotation.x
      value: 0
      objectReference: {fileID: 0}
    - target: {fileID: 400000, guid: 391c165bd56fb1849ba1e689e121d662, type: 2}
      propertyPath: m_LocalRotation.y
      value: 0
      objectReference: {fileID: 0}
    - target: {fileID: 400000, guid: 391c165bd56fb1849ba1e689e121d662, type: 2}
      propertyPath: m_LocalRotation.z
      value: 0
      objectReference: {fileID: 0}
    - target: {fileID: 400000, guid: 391c165bd56fb1849ba1e689e121d662, type: 2}
      propertyPath: m_LocalRotation.w
      value: 1
      objectReference: {fileID: 0}
    - target: {fileID: 400000, guid: 391c165bd56fb1849ba1e689e121d662, type: 2}
      propertyPath: m_RootMapOrder
      value: 
      objectReference: {fileID: 0}
    - target: {fileID: 400000, guid: 391c165bd56fb1849ba1e689e121d662, type: 2}
      propertyPath: m_RootOrder
      value: 2
      objectReference: {fileID: 0}
    - target: {fileID: 11400000, guid: 391c165bd56fb1849ba1e689e121d662, type: 2}
      propertyPath: target
      value: 
      objectReference: {fileID: 1213048130}
    - target: {fileID: 11400000, guid: 391c165bd56fb1849ba1e689e121d662, type: 2}
      propertyPath: xOffset
      value: 1.79999995
      objectReference: {fileID: 0}
    m_RemovedComponents: []
  m_ParentPrefab: {fileID: 100100000, guid: 391c165bd56fb1849ba1e689e121d662, type: 2}
  m_RootGameObject: {fileID: 1096749125}
  m_IsPrefabParent: 0
--- !u!1 &862713002
GameObject:
  m_ObjectHideFlags: 0
  m_PrefabParentObject: {fileID: 100006, guid: 73bcf722ddbac4ab58989aaf3e2f38ff, type: 2}
  m_PrefabInternal: {fileID: 1243210112}
  serializedVersion: 5
  m_Component:
  - component: {fileID: 862713004}
  - component: {fileID: 862713003}
  m_Layer: 0
  m_Name: AnyKeyText
  m_TagString: Untagged
  m_Icon: {fileID: 0}
  m_NavMeshLayer: 0
  m_StaticEditorFlags: 0
  m_IsActive: 1
--- !u!132 &862713003
GUIText:
  m_ObjectHideFlags: 0
  m_PrefabParentObject: {fileID: 13200004, guid: 73bcf722ddbac4ab58989aaf3e2f38ff,
    type: 2}
  m_PrefabInternal: {fileID: 1243210112}
  m_GameObject: {fileID: 862713002}
  m_Enabled: 1
  serializedVersion: 3
  m_Text: Press any key to continue
  m_Anchor: 1
  m_Alignment: 1
  m_PixelOffset: {x: 0, y: 0}
  m_LineSpacing: 1
  m_TabSize: 4
  m_Font: {fileID: 12800000, guid: 7c8f2c1b40ef5804b90042c80473b066, type: 3}
  m_Material: {fileID: 0}
  m_FontSize: 32
  m_FontStyle: 0
  m_Color:
    serializedVersion: 2
    rgba: 4278190080
  m_PixelCorrect: 1
  m_RichText: 1
--- !u!4 &862713004
Transform:
  m_ObjectHideFlags: 0
  m_PrefabParentObject: {fileID: 400006, guid: 73bcf722ddbac4ab58989aaf3e2f38ff, type: 2}
  m_PrefabInternal: {fileID: 1243210112}
  m_GameObject: {fileID: 862713002}
  m_LocalRotation: {x: 0, y: 0, z: 0, w: 1}
  m_LocalPosition: {x: 0, y: -0.2, z: 0}
  m_LocalScale: {x: 1, y: 1, z: 1}
  m_Children: []
  m_Father: {fileID: 1147535532}
  m_RootOrder: 0
  m_LocalEulerAnglesHint: {x: 0, y: 0, z: 0}
--- !u!1 &961284218
GameObject:
  m_ObjectHideFlags: 0
  m_PrefabParentObject: {fileID: 100002, guid: 73bcf722ddbac4ab58989aaf3e2f38ff, type: 2}
  m_PrefabInternal: {fileID: 1243210112}
  serializedVersion: 5
  m_Component:
  - component: {fileID: 961284220}
  - component: {fileID: 961284219}
  m_Layer: 0
  m_Name: ScoreText
  m_TagString: Untagged
  m_Icon: {fileID: 0}
  m_NavMeshLayer: 0
  m_StaticEditorFlags: 0
  m_IsActive: 1
--- !u!132 &961284219
GUIText:
  m_ObjectHideFlags: 0
  m_PrefabParentObject: {fileID: 13200000, guid: 73bcf722ddbac4ab58989aaf3e2f38ff,
    type: 2}
  m_PrefabInternal: {fileID: 1243210112}
  m_GameObject: {fileID: 961284218}
  m_Enabled: 1
  serializedVersion: 3
  m_Text: 'Score: 0'
  m_Anchor: 7
  m_Alignment: 1
  m_PixelOffset: {x: 0, y: 0}
  m_LineSpacing: 1
  m_TabSize: 4
  m_Font: {fileID: 12800000, guid: 7c8f2c1b40ef5804b90042c80473b066, type: 3}
  m_Material: {fileID: 0}
  m_FontSize: 36
  m_FontStyle: 0
  m_Color:
    serializedVersion: 2
    rgba: 4294967295
  m_PixelCorrect: 1
  m_RichText: 1
--- !u!4 &961284220
Transform:
  m_ObjectHideFlags: 0
  m_PrefabParentObject: {fileID: 400002, guid: 73bcf722ddbac4ab58989aaf3e2f38ff, type: 2}
  m_PrefabInternal: {fileID: 1243210112}
  m_GameObject: {fileID: 961284218}
  m_LocalRotation: {x: 0, y: 0, z: 0, w: 1}
  m_LocalPosition: {x: 0.5, y: 0.1, z: 10}
  m_LocalScale: {x: 1, y: 1, z: 1}
  m_Children: []
  m_Father: {fileID: 1588387652}
  m_RootOrder: 0
  m_LocalEulerAnglesHint: {x: 0, y: 0, z: 0}
--- !u!1 &1096749125
GameObject:
  m_ObjectHideFlags: 0
  m_PrefabParentObject: {fileID: 100000, guid: 391c165bd56fb1849ba1e689e121d662, type: 2}
  m_PrefabInternal: {fileID: 814021708}
  serializedVersion: 5
  m_Component:
  - component: {fileID: 1096749126}
  - component: {fileID: 1096749127}
  m_Layer: 0
  m_Name: BirdFollower
  m_TagString: Untagged
  m_Icon: {fileID: 0}
  m_NavMeshLayer: 0
  m_StaticEditorFlags: 0
  m_IsActive: 1
--- !u!4 &1096749126
Transform:
  m_ObjectHideFlags: 0
  m_PrefabParentObject: {fileID: 400000, guid: 391c165bd56fb1849ba1e689e121d662, type: 2}
  m_PrefabInternal: {fileID: 814021708}
  m_GameObject: {fileID: 1096749125}
  m_LocalRotation: {x: 0, y: 0, z: 0, w: 1}
  m_LocalPosition: {x: 0, y: 0, z: 0}
  m_LocalScale: {x: 1, y: 1, z: 1}
  m_Children:
  - {fileID: 1815983899}
  - {fileID: 2023186530}
  - {fileID: 1479412452}
  m_Father: {fileID: 0}
  m_RootOrder: 2
  m_LocalEulerAnglesHint: {x: 0, y: 0, z: 0}
--- !u!114 &1096749127
MonoBehaviour:
  m_ObjectHideFlags: 0
  m_PrefabParentObject: {fileID: 11400000, guid: 391c165bd56fb1849ba1e689e121d662,
    type: 2}
  m_PrefabInternal: {fileID: 814021708}
  m_GameObject: {fileID: 1096749125}
  m_Enabled: 1
  m_EditorHideFlags: 0
  m_Script: {fileID: 11500000, guid: 812190face5ef4424b3c97a5737baf17, type: 3}
  m_Name: 
  m_EditorClassIdentifier: 
  target: {fileID: 1213048130}
  xOffset: 1.8
--- !u!1 &1147535531
GameObject:
  m_ObjectHideFlags: 0
  m_PrefabParentObject: {fileID: 100004, guid: 73bcf722ddbac4ab58989aaf3e2f38ff, type: 2}
  m_PrefabInternal: {fileID: 1243210112}
  serializedVersion: 5
  m_Component:
  - component: {fileID: 1147535532}
  - component: {fileID: 1147535533}
  m_Layer: 0
  m_Name: GameOverText
  m_TagString: Untagged
  m_Icon: {fileID: 0}
  m_NavMeshLayer: 0
  m_StaticEditorFlags: 0
  m_IsActive: 0
--- !u!4 &1147535532
Transform:
  m_ObjectHideFlags: 0
  m_PrefabParentObject: {fileID: 400004, guid: 73bcf722ddbac4ab58989aaf3e2f38ff, type: 2}
  m_PrefabInternal: {fileID: 1243210112}
  m_GameObject: {fileID: 1147535531}
  m_LocalRotation: {x: 0, y: 0, z: 0, w: 1}
  m_LocalPosition: {x: 0.5, y: 0.92, z: 10}
  m_LocalScale: {x: 1, y: 1, z: 1}
  m_Children:
  - {fileID: 862713004}
  m_Father: {fileID: 1588387652}
  m_RootOrder: 1
  m_LocalEulerAnglesHint: {x: 0, y: 0, z: 0}
--- !u!132 &1147535533
GUIText:
  m_ObjectHideFlags: 0
  m_PrefabParentObject: {fileID: 13200002, guid: 73bcf722ddbac4ab58989aaf3e2f38ff,
    type: 2}
  m_PrefabInternal: {fileID: 1243210112}
  m_GameObject: {fileID: 1147535531}
  m_Enabled: 1
  serializedVersion: 3
  m_Text: Game Over
  m_Anchor: 1
  m_Alignment: 0
  m_PixelOffset: {x: 0, y: 0}
  m_LineSpacing: 1
  m_TabSize: 4
  m_Font: {fileID: 12800000, guid: 7c8f2c1b40ef5804b90042c80473b066, type: 3}
  m_Material: {fileID: 0}
  m_FontSize: 72
  m_FontStyle: 0
  m_Color:
    serializedVersion: 2
    rgba: 4278190080
  m_PixelCorrect: 1
  m_RichText: 1
--- !u!1 &1213048128
GameObject:
  m_ObjectHideFlags: 0
  m_PrefabParentObject: {fileID: 100000, guid: 45a7c5631d9b74a5984dfe39b48e0199, type: 2}
  m_PrefabInternal: {fileID: 1836950659}
  serializedVersion: 5
  m_Component:
  - component: {fileID: 1213048130}
  - component: {fileID: 1213048129}
  - component: {fileID: 1213048132}
  - component: {fileID: 1213048131}
  - component: {fileID: 1213048133}
  - component: {fileID: 1213048134}
  m_Layer: 0
  m_Name: Bird
  m_TagString: Untagged
  m_Icon: {fileID: 0}
  m_NavMeshLayer: 0
  m_StaticEditorFlags: 0
  m_IsActive: 1
--- !u!212 &1213048129
SpriteRenderer:
  m_ObjectHideFlags: 0
  m_PrefabParentObject: {fileID: 21200000, guid: 45a7c5631d9b74a5984dfe39b48e0199,
    type: 2}
  m_PrefabInternal: {fileID: 1836950659}
  m_GameObject: {fileID: 1213048128}
  m_Enabled: 1
  m_CastShadows: 0
  m_ReceiveShadows: 0
  m_DynamicOccludee: 1
  m_MotionVectors: 1
  m_LightProbeUsage: 0
  m_ReflectionProbeUsage: 1
  m_Materials:
  - {fileID: 10754, guid: 0000000000000000f000000000000000, type: 0}
  m_StaticBatchInfo:
    firstSubMesh: 0
    subMeshCount: 0
  m_StaticBatchRoot: {fileID: 0}
  m_ProbeAnchor: {fileID: 0}
  m_LightProbeVolumeOverride: {fileID: 0}
  m_ScaleInLightmap: 1
  m_PreserveUVs: 0
  m_IgnoreNormalsForChartDetection: 0
  m_ImportantGI: 0
  m_StitchLightmapSeams: 0
  m_SelectedEditorRenderState: 0
  m_MinimumChartSize: 4
  m_AutoUVMaxDistance: 0.5
  m_AutoUVMaxAngle: 89
  m_LightmapParameters: {fileID: 0}
  m_SortingLayerID: 404910065
  m_SortingLayer: 0
  m_SortingOrder: 1
  m_Sprite: {fileID: 21300002, guid: b9679ce5047dd48bbbf37321679fa793, type: 3}
  m_Color: {r: 1, g: 1, b: 1, a: 1}
  m_FlipX: 0
  m_FlipY: 0
  m_DrawMode: 0
  m_Size: {x: 1, y: 1}
  m_AdaptiveModeThreshold: 0.5
  m_SpriteTileMode: 0
  m_WasSpriteAssigned: 1
  m_MaskInteraction: 0
--- !u!4 &1213048130
Transform:
  m_ObjectHideFlags: 0
  m_PrefabParentObject: {fileID: 400000, guid: 45a7c5631d9b74a5984dfe39b48e0199, type: 2}
  m_PrefabInternal: {fileID: 1836950659}
  m_GameObject: {fileID: 1213048128}
  m_LocalRotation: {x: 0, y: 0, z: 0, w: 1}
  m_LocalPosition: {x: -1.8, y: 0.55830437, z: 0}
  m_LocalScale: {x: 1, y: 1, z: 1}
  m_Children: []
  m_Father: {fileID: 0}
  m_RootOrder: 1
  m_LocalEulerAnglesHint: {x: 0, y: 0, z: 0}
--- !u!60 &1213048131
PolygonCollider2D:
  m_ObjectHideFlags: 0
  m_PrefabParentObject: {fileID: 6000000, guid: 45a7c5631d9b74a5984dfe39b48e0199,
    type: 2}
  m_PrefabInternal: {fileID: 1836950659}
  m_GameObject: {fileID: 1213048128}
  m_Enabled: 1
  m_Density: 1
  m_Material: {fileID: 0}
  m_IsTrigger: 0
  m_UsedByEffector: 0
  m_UsedByComposite: 0
  m_Offset: {x: 0, y: 0}
  m_SpriteTilingProperty:
    border: {x: 0, y: 0, z: 0, w: 0}
    pivot: {x: 0.5, y: 0.5}
    oldSize: {x: 0.85333335, y: 0.85333335}
    newSize: {x: 1, y: 1}
    adaptiveTilingThreshold: 0.5
    drawMode: 0
    adaptiveTiling: 0
  m_AutoTiling: 0
  m_Points:
    m_Paths:
    - - {x: 0.36, y: 0.033333335}
      - {x: 0.14, y: 0.18}
      - {x: -0.04, y: 0.22}
      - {x: -0.20666666, y: 0.22}
      - {x: -0.39333335, y: 0.16666667}
      - {x: -0.40666667, y: 0.14}
      - {x: -0.40666667, y: 0.033333335}
      - {x: -0.38, y: -0.10666667}
      - {x: -0.28, y: -0.22666667}
      - {x: 0.14666666, y: -0.22666667}
      - {x: 0.28666666, y: -0.18}
      - {x: 0.38, y: -0.07333333}
      - {x: 0.38, y: 0.006666667}
--- !u!50 &1213048132
Rigidbody2D:
  serializedVersion: 4
  m_ObjectHideFlags: 0
  m_PrefabParentObject: {fileID: 5000000, guid: 45a7c5631d9b74a5984dfe39b48e0199,
    type: 2}
  m_PrefabInternal: {fileID: 1836950659}
  m_GameObject: {fileID: 1213048128}
  m_BodyType: 0
  m_Simulated: 1
  m_UseFullKinematicContacts: 0
  m_UseAutoMass: 0
  m_Mass: 1
  m_LinearDrag: 0
  m_AngularDrag: 0
  m_GravityScale: 0.66
  m_Material: {fileID: 0}
  m_Interpolate: 0
  m_SleepingMode: 1
  m_CollisionDetection: 0
  m_Constraints: 0
--- !u!95 &1213048133
Animator:
  serializedVersion: 3
  m_ObjectHideFlags: 0
  m_PrefabParentObject: {fileID: 9500000, guid: 45a7c5631d9b74a5984dfe39b48e0199,
    type: 2}
  m_PrefabInternal: {fileID: 1836950659}
  m_GameObject: {fileID: 1213048128}
  m_Enabled: 1
  m_Avatar: {fileID: 0}
  m_Controller: {fileID: 9100000, guid: 961d42731f2f7499ea02a780cfbf7bce, type: 2}
  m_CullingMode: 0
  m_UpdateMode: 0
  m_ApplyRootMotion: 0
  m_LinearVelocityBlending: 0
  m_WarningMessage: 
  m_HasTransformHierarchy: 1
  m_AllowConstantClipSamplingOptimization: 1
--- !u!114 &1213048134
MonoBehaviour:
  m_ObjectHideFlags: 0
  m_PrefabParentObject: {fileID: 11400000, guid: 45a7c5631d9b74a5984dfe39b48e0199,
    type: 2}
  m_PrefabInternal: {fileID: 1836950659}
  m_GameObject: {fileID: 1213048128}
  m_Enabled: 1
  m_EditorHideFlags: 0
  m_Script: {fileID: 11500000, guid: 83af53bce501149a78afac6b1a126947, type: 3}
  m_Name: 
  m_EditorClassIdentifier: 
  upForce: 200
  forwardSpeed: 1.5
  isDead: 0
--- !u!1001 &1243210112
Prefab:
  m_ObjectHideFlags: 0
  serializedVersion: 2
  m_Modification:
    m_TransformParent: {fileID: 0}
    m_Modifications:
    - target: {fileID: 400000, guid: 73bcf722ddbac4ab58989aaf3e2f38ff, type: 2}
      propertyPath: m_LocalPosition.x
      value: 0
      objectReference: {fileID: 0}
    - target: {fileID: 400000, guid: 73bcf722ddbac4ab58989aaf3e2f38ff, type: 2}
      propertyPath: m_LocalPosition.y
      value: 0
      objectReference: {fileID: 0}
    - target: {fileID: 400000, guid: 73bcf722ddbac4ab58989aaf3e2f38ff, type: 2}
      propertyPath: m_LocalPosition.z
      value: -10
      objectReference: {fileID: 0}
    - target: {fileID: 400000, guid: 73bcf722ddbac4ab58989aaf3e2f38ff, type: 2}
      propertyPath: m_LocalRotation.x
      value: 0
      objectReference: {fileID: 0}
    - target: {fileID: 400000, guid: 73bcf722ddbac4ab58989aaf3e2f38ff, type: 2}
      propertyPath: m_LocalRotation.y
      value: 0
      objectReference: {fileID: 0}
    - target: {fileID: 400000, guid: 73bcf722ddbac4ab58989aaf3e2f38ff, type: 2}
      propertyPath: m_LocalRotation.z
      value: 0
      objectReference: {fileID: 0}
    - target: {fileID: 400000, guid: 73bcf722ddbac4ab58989aaf3e2f38ff, type: 2}
      propertyPath: m_LocalRotation.w
      value: 1
      objectReference: {fileID: 0}
    - target: {fileID: 400000, guid: 73bcf722ddbac4ab58989aaf3e2f38ff, type: 2}
      propertyPath: m_RootMapOrder
      value: 
      objectReference: {fileID: 0}
    - target: {fileID: 11400000, guid: 73bcf722ddbac4ab58989aaf3e2f38ff, type: 2}
      propertyPath: columnSpawner
      value: 
      objectReference: {fileID: 2023186531}
    - target: {fileID: 11400000, guid: 73bcf722ddbac4ab58989aaf3e2f38ff, type: 2}
      propertyPath: scoreText
      value: 
      objectReference: {fileID: 961284219}
    m_RemovedComponents: []
  m_ParentPrefab: {fileID: 100100000, guid: 73bcf722ddbac4ab58989aaf3e2f38ff, type: 2}
  m_RootGameObject: {fileID: 1588387651}
  m_IsPrefabParent: 0
--- !u!1 &1294999831
GameObject:
  m_ObjectHideFlags: 0
  m_PrefabParentObject: {fileID: 100006, guid: cc934f51fc632524786844dca51b4475, type: 2}
  m_PrefabInternal: {fileID: 1548335487}
  serializedVersion: 5
  m_Component:
  - component: {fileID: 1294999833}
  - component: {fileID: 1294999832}
  - component: {fileID: 1294999834}
  m_Layer: 8
  m_Name: Ground
  m_TagString: Scenery
  m_Icon: {fileID: 0}
  m_NavMeshLayer: 0
  m_StaticEditorFlags: 0
  m_IsActive: 1
--- !u!212 &1294999832
SpriteRenderer:
  m_ObjectHideFlags: 0
  m_PrefabParentObject: {fileID: 21200004, guid: cc934f51fc632524786844dca51b4475,
    type: 2}
  m_PrefabInternal: {fileID: 1548335487}
  m_GameObject: {fileID: 1294999831}
  m_Enabled: 1
  m_CastShadows: 0
  m_ReceiveShadows: 0
  m_DynamicOccludee: 1
  m_MotionVectors: 1
  m_LightProbeUsage: 0
  m_ReflectionProbeUsage: 1
  m_Materials:
  - {fileID: 10754, guid: 0000000000000000f000000000000000, type: 0}
  m_StaticBatchInfo:
    firstSubMesh: 0
    subMeshCount: 0
  m_StaticBatchRoot: {fileID: 0}
  m_ProbeAnchor: {fileID: 0}
  m_LightProbeVolumeOverride: {fileID: 0}
  m_ScaleInLightmap: 1
  m_PreserveUVs: 0
  m_IgnoreNormalsForChartDetection: 0
  m_ImportantGI: 0
  m_StitchLightmapSeams: 0
  m_SelectedEditorRenderState: 0
  m_MinimumChartSize: 4
  m_AutoUVMaxDistance: 0.5
  m_AutoUVMaxAngle: 89
  m_LightmapParameters: {fileID: 0}
  m_SortingLayerID: 404910065
  m_SortingLayer: 0
  m_SortingOrder: 0
  m_Sprite: {fileID: 21300000, guid: 8eeaba973de60134fb7f7fb68863fe5b, type: 3}
  m_Color: {r: 1, g: 1, b: 1, a: 1}
  m_FlipX: 0
  m_FlipY: 0
  m_DrawMode: 0
  m_Size: {x: 1, y: 1}
  m_AdaptiveModeThreshold: 0.5
  m_SpriteTileMode: 0
  m_WasSpriteAssigned: 1
  m_MaskInteraction: 0
--- !u!4 &1294999833
Transform:
  m_ObjectHideFlags: 0
  m_PrefabParentObject: {fileID: 400006, guid: cc934f51fc632524786844dca51b4475, type: 2}
  m_PrefabInternal: {fileID: 1548335487}
  m_GameObject: {fileID: 1294999831}
  m_LocalRotation: {x: 0, y: 0, z: 0, w: 1}
  m_LocalPosition: {x: 4, y: -2, z: 0}
  m_LocalScale: {x: 1, y: 1, z: 1}
  m_Children:
  - {fileID: 134996024}
  m_Father: {fileID: 417435835}
  m_RootOrder: 1
  m_LocalEulerAnglesHint: {x: 0, y: 0, z: 0}
--- !u!61 &1294999834
BoxCollider2D:
  m_ObjectHideFlags: 0
  m_PrefabParentObject: {fileID: 6100002, guid: cc934f51fc632524786844dca51b4475,
    type: 2}
  m_PrefabInternal: {fileID: 1548335487}
  m_GameObject: {fileID: 1294999831}
  m_Enabled: 1
  m_Density: 1
  m_Material: {fileID: 0}
  m_IsTrigger: 0
  m_UsedByEffector: 0
  m_UsedByComposite: 0
  m_Offset: {x: 0, y: -0.99}
  m_SpriteTilingProperty:
    border: {x: 0, y: 0, z: 0, w: 0}
    pivot: {x: 0.5, y: 0.5}
    oldSize: {x: 27.306667, y: 6.826667}
    newSize: {x: 1, y: 1}
    adaptiveTilingThreshold: 0.5
    drawMode: 0
    adaptiveTiling: 0
  m_AutoTiling: 0
  serializedVersion: 2
  m_Size: {x: 27.306667, y: 1.62}
  m_EdgeRadius: 0
--- !u!1 &1479412451
GameObject:
  m_ObjectHideFlags: 0
  m_PrefabParentObject: {fileID: 100006, guid: 391c165bd56fb1849ba1e689e121d662, type: 2}
  m_PrefabInternal: {fileID: 814021708}
  serializedVersion: 5
  m_Component:
  - component: {fileID: 1479412452}
  - component: {fileID: 1479412454}
  - component: {fileID: 1479412453}
  - component: {fileID: 1479412455}
  m_Layer: 0
  m_Name: SceneryScroller
  m_TagString: Untagged
  m_Icon: {fileID: 0}
  m_NavMeshLayer: 0
  m_StaticEditorFlags: 0
  m_IsActive: 1
--- !u!4 &1479412452
Transform:
  m_ObjectHideFlags: 0
  m_PrefabParentObject: {fileID: 400006, guid: 391c165bd56fb1849ba1e689e121d662, type: 2}
  m_PrefabInternal: {fileID: 814021708}
  m_GameObject: {fileID: 1479412451}
  m_LocalRotation: {x: 0, y: 0, z: 0, w: 1}
  m_LocalPosition: {x: -40, y: 0, z: 0}
  m_LocalScale: {x: 1, y: 1, z: 1}
  m_Children: []
  m_Father: {fileID: 1096749126}
  m_RootOrder: 2
  m_LocalEulerAnglesHint: {x: 0, y: 0, z: 0}
--- !u!50 &1479412453
Rigidbody2D:
  serializedVersion: 4
  m_ObjectHideFlags: 0
  m_PrefabParentObject: {fileID: 5000000, guid: 391c165bd56fb1849ba1e689e121d662,
    type: 2}
  m_PrefabInternal: {fileID: 814021708}
  m_GameObject: {fileID: 1479412451}
  m_BodyType: 1
  m_Simulated: 1
  m_UseFullKinematicContacts: 0
  m_UseAutoMass: 0
  m_Mass: 1
  m_LinearDrag: 0
  m_AngularDrag: 0.05
  m_GravityScale: 1
  m_Material: {fileID: 0}
  m_Interpolate: 0
  m_SleepingMode: 1
  m_CollisionDetection: 0
  m_Constraints: 0
--- !u!61 &1479412454
BoxCollider2D:
  m_ObjectHideFlags: 0
  m_PrefabParentObject: {fileID: 6100000, guid: 391c165bd56fb1849ba1e689e121d662,
    type: 2}
  m_PrefabInternal: {fileID: 814021708}
  m_GameObject: {fileID: 1479412451}
  m_Enabled: 1
  m_Density: 1
  m_Material: {fileID: 0}
  m_IsTrigger: 1
  m_UsedByEffector: 0
  m_UsedByComposite: 0
  m_Offset: {x: 0, y: 0}
  m_SpriteTilingProperty:
    border: {x: 0, y: 0, z: 0, w: 0}
    pivot: {x: 0, y: 0}
    oldSize: {x: 0, y: 0}
    newSize: {x: 0, y: 0}
    adaptiveTilingThreshold: 0
    drawMode: 0
    adaptiveTiling: 0
  m_AutoTiling: 0
  serializedVersion: 2
  m_Size: {x: 1, y: 12.6}
  m_EdgeRadius: 0
--- !u!114 &1479412455
MonoBehaviour:
  m_ObjectHideFlags: 0
  m_PrefabParentObject: {fileID: 11400004, guid: 391c165bd56fb1849ba1e689e121d662,
    type: 2}
  m_PrefabInternal: {fileID: 814021708}
  m_GameObject: {fileID: 1479412451}
  m_Enabled: 1
  m_EditorHideFlags: 0
  m_Script: {fileID: 11500000, guid: 71e5a3553704e884f99dbf6c91f68409, type: 3}
  m_Name: 
  m_EditorClassIdentifier: 
  amount: 54.6
--- !u!1001 &1548335487
Prefab:
  m_ObjectHideFlags: 0
  serializedVersion: 2
  m_Modification:
    m_TransformParent: {fileID: 0}
    m_Modifications:
    - target: {fileID: 400002, guid: cc934f51fc632524786844dca51b4475, type: 2}
      propertyPath: m_LocalPosition.x
      value: 0
      objectReference: {fileID: 0}
    - target: {fileID: 400002, guid: cc934f51fc632524786844dca51b4475, type: 2}
      propertyPath: m_LocalPosition.y
      value: 0
      objectReference: {fileID: 0}
    - target: {fileID: 400002, guid: cc934f51fc632524786844dca51b4475, type: 2}
      propertyPath: m_LocalPosition.z
      value: 0
      objectReference: {fileID: 0}
    - target: {fileID: 400002, guid: cc934f51fc632524786844dca51b4475, type: 2}
      propertyPath: m_LocalRotation.x
      value: 0
      objectReference: {fileID: 0}
    - target: {fileID: 400002, guid: cc934f51fc632524786844dca51b4475, type: 2}
      propertyPath: m_LocalRotation.y
      value: 0
      objectReference: {fileID: 0}
    - target: {fileID: 400002, guid: cc934f51fc632524786844dca51b4475, type: 2}
      propertyPath: m_LocalRotation.z
      value: 0
      objectReference: {fileID: 0}
    - target: {fileID: 400002, guid: cc934f51fc632524786844dca51b4475, type: 2}
      propertyPath: m_LocalRotation.w
      value: 1
      objectReference: {fileID: 0}
    - target: {fileID: 400002, guid: cc934f51fc632524786844dca51b4475, type: 2}
      propertyPath: m_RootMapOrder
      value: 
      objectReference: {fileID: 0}
    - target: {fileID: 400002, guid: cc934f51fc632524786844dca51b4475, type: 2}
      propertyPath: m_RootOrder
      value: 3
      objectReference: {fileID: 0}
    - target: {fileID: 100008, guid: cc934f51fc632524786844dca51b4475, type: 2}
      propertyPath: m_Name
      value: SkyTileSprite
      objectReference: {fileID: 0}
    - target: {fileID: 100000, guid: cc934f51fc632524786844dca51b4475, type: 2}
      propertyPath: m_Name
      value: SkyTileSprite
      objectReference: {fileID: 0}
    m_RemovedComponents: []
  m_ParentPrefab: {fileID: 100100000, guid: cc934f51fc632524786844dca51b4475, type: 2}
  m_RootGameObject: {fileID: 417435834}
  m_IsPrefabParent: 0
--- !u!1 &1576888523
GameObject:
  m_ObjectHideFlags: 0
  m_PrefabParentObject: {fileID: 100008, guid: cc934f51fc632524786844dca51b4475, type: 2}
  m_PrefabInternal: {fileID: 1548335487}
  serializedVersion: 5
  m_Component:
  - component: {fileID: 1576888524}
  - component: {fileID: 1576888525}
  m_Layer: 8
  m_Name: SkyTileSprite
  m_TagString: Scenery
  m_Icon: {fileID: 0}
  m_NavMeshLayer: 0
  m_StaticEditorFlags: 0
  m_IsActive: 1
--- !u!4 &1576888524
Transform:
  m_ObjectHideFlags: 0
  m_PrefabParentObject: {fileID: 400008, guid: cc934f51fc632524786844dca51b4475, type: 2}
  m_PrefabInternal: {fileID: 1548335487}
  m_GameObject: {fileID: 1576888523}
  m_LocalRotation: {x: 0, y: 0, z: 0, w: 1}
  m_LocalPosition: {x: 0, y: 2.2, z: 0}
  m_LocalScale: {x: 1, y: 1, z: 1}
  m_Children: []
  m_Father: {fileID: 457543988}
  m_RootOrder: 0
  m_LocalEulerAnglesHint: {x: 0, y: 0, z: 0}
--- !u!212 &1576888525
SpriteRenderer:
  m_ObjectHideFlags: 0
  m_PrefabParentObject: {fileID: 21200006, guid: cc934f51fc632524786844dca51b4475,
    type: 2}
  m_PrefabInternal: {fileID: 1548335487}
  m_GameObject: {fileID: 1576888523}
  m_Enabled: 1
  m_CastShadows: 0
  m_ReceiveShadows: 0
  m_DynamicOccludee: 1
  m_MotionVectors: 1
  m_LightProbeUsage: 0
  m_ReflectionProbeUsage: 1
  m_Materials:
  - {fileID: 10754, guid: 0000000000000000f000000000000000, type: 0}
  m_StaticBatchInfo:
    firstSubMesh: 0
    subMeshCount: 0
  m_StaticBatchRoot: {fileID: 0}
  m_ProbeAnchor: {fileID: 0}
  m_LightProbeVolumeOverride: {fileID: 0}
  m_ScaleInLightmap: 1
  m_PreserveUVs: 0
  m_IgnoreNormalsForChartDetection: 0
  m_ImportantGI: 0
  m_StitchLightmapSeams: 0
  m_SelectedEditorRenderState: 0
  m_MinimumChartSize: 4
  m_AutoUVMaxDistance: 0.5
  m_AutoUVMaxAngle: 89
  m_LightmapParameters: {fileID: 0}
  m_SortingLayerID: 0
  m_SortingLayer: 0
  m_SortingOrder: 0
  m_Sprite: {fileID: 21300000, guid: 5ad00495542ee412cbfd6988b3c7973a, type: 3}
  m_Color: {r: 1, g: 1, b: 1, a: 1}
  m_FlipX: 0
  m_FlipY: 0
  m_DrawMode: 0
  m_Size: {x: 1, y: 1}
  m_AdaptiveModeThreshold: 0.5
  m_SpriteTileMode: 0
  m_WasSpriteAssigned: 1
  m_MaskInteraction: 0
--- !u!1 &1588387651
GameObject:
  m_ObjectHideFlags: 0
  m_PrefabParentObject: {fileID: 100000, guid: 73bcf722ddbac4ab58989aaf3e2f38ff, type: 2}
  m_PrefabInternal: {fileID: 1243210112}
  serializedVersion: 5
  m_Component:
  - component: {fileID: 1588387652}
  - component: {fileID: 1588387653}
  m_Layer: 0
  m_Name: GameControl
  m_TagString: Untagged
  m_Icon: {fileID: 0}
  m_NavMeshLayer: 0
  m_StaticEditorFlags: 0
  m_IsActive: 1
--- !u!4 &1588387652
Transform:
  m_ObjectHideFlags: 0
  m_PrefabParentObject: {fileID: 400000, guid: 73bcf722ddbac4ab58989aaf3e2f38ff, type: 2}
  m_PrefabInternal: {fileID: 1243210112}
  m_GameObject: {fileID: 1588387651}
  m_LocalRotation: {x: 0, y: 0, z: 0, w: 1}
  m_LocalPosition: {x: 0, y: 0, z: -10}
  m_LocalScale: {x: 1, y: 1, z: 1}
  m_Children:
  - {fileID: 961284220}
  - {fileID: 1147535532}
  m_Father: {fileID: 0}
  m_RootOrder: 0
  m_LocalEulerAnglesHint: {x: 0, y: 0, z: 0}
--- !u!114 &1588387653
MonoBehaviour:
  m_ObjectHideFlags: 0
  m_PrefabParentObject: {fileID: 11400000, guid: 73bcf722ddbac4ab58989aaf3e2f38ff,
    type: 2}
  m_PrefabInternal: {fileID: 1243210112}
  m_GameObject: {fileID: 1588387651}
  m_Enabled: 1
  m_EditorHideFlags: 0
  m_Script: {fileID: 11500000, guid: 4850255a45ab5e9448b29fef77f1a2f9, type: 3}
  m_Name: 
  m_EditorClassIdentifier: 
  columnSpawner: {fileID: 2023186531}
  scoreText: {fileID: 961284219}
  gameOvertext: {fileID: 1147535531}
--- !u!1 &1815983894
GameObject:
  m_ObjectHideFlags: 0
  m_PrefabParentObject: {fileID: 100004, guid: 391c165bd56fb1849ba1e689e121d662, type: 2}
  m_PrefabInternal: {fileID: 814021708}
  serializedVersion: 5
  m_Component:
  - component: {fileID: 1815983899}
  - component: {fileID: 1815983898}
  - component: {fileID: 1815983897}
  - component: {fileID: 1815983896}
  - component: {fileID: 1815983895}
  m_Layer: 0
  m_Name: Main Camera
  m_TagString: MainCamera
  m_Icon: {fileID: 0}
  m_NavMeshLayer: 0
  m_StaticEditorFlags: 0
  m_IsActive: 1
--- !u!81 &1815983895
AudioListener:
  m_ObjectHideFlags: 0
  m_PrefabParentObject: {fileID: 8100000, guid: 391c165bd56fb1849ba1e689e121d662,
    type: 2}
  m_PrefabInternal: {fileID: 814021708}
  m_GameObject: {fileID: 1815983894}
  m_Enabled: 1
--- !u!124 &1815983896
Behaviour:
  m_ObjectHideFlags: 0
  m_PrefabParentObject: {fileID: 12400000, guid: 391c165bd56fb1849ba1e689e121d662,
    type: 2}
  m_PrefabInternal: {fileID: 814021708}
  m_GameObject: {fileID: 1815983894}
  m_Enabled: 1
--- !u!92 &1815983897
Behaviour:
  m_ObjectHideFlags: 0
  m_PrefabParentObject: {fileID: 9200000, guid: 391c165bd56fb1849ba1e689e121d662,
    type: 2}
  m_PrefabInternal: {fileID: 814021708}
  m_GameObject: {fileID: 1815983894}
  m_Enabled: 1
--- !u!20 &1815983898
Camera:
  m_ObjectHideFlags: 0
  m_PrefabParentObject: {fileID: 2000000, guid: 391c165bd56fb1849ba1e689e121d662,
    type: 2}
  m_PrefabInternal: {fileID: 814021708}
  m_GameObject: {fileID: 1815983894}
  m_Enabled: 1
  serializedVersion: 2
  m_ClearFlags: 1
  m_BackGroundColor: {r: 0.19215687, g: 0.3019608, b: 0.4745098, a: 0.019607844}
  m_NormalizedViewPortRect:
    serializedVersion: 2
    x: 0
    y: 0
    width: 1
    height: 1
  near clip plane: 0.3
  far clip plane: 1000
  field of view: 60
  orthographic: 1
  orthographic size: 5
  m_Depth: -1
  m_CullingMask:
    serializedVersion: 2
    m_Bits: 4294967295
  m_RenderingPath: -1
  m_TargetTexture: {fileID: 0}
  m_TargetDisplay: 0
  m_TargetEye: 3
  m_HDR: 0
  m_AllowMSAA: 1
  m_AllowDynamicResolution: 0
  m_ForceIntoRT: 0
  m_OcclusionCulling: 1
  m_StereoConvergence: 10
  m_StereoSeparation: 0.022
--- !u!4 &1815983899
Transform:
  m_ObjectHideFlags: 0
  m_PrefabParentObject: {fileID: 400004, guid: 391c165bd56fb1849ba1e689e121d662, type: 2}
  m_PrefabInternal: {fileID: 814021708}
  m_GameObject: {fileID: 1815983894}
  m_LocalRotation: {x: 0, y: 0, z: 0, w: 1}
  m_LocalPosition: {x: 0, y: 0, z: -10}
  m_LocalScale: {x: 1, y: 1, z: 1}
  m_Children: []
  m_Father: {fileID: 1096749126}
  m_RootOrder: 0
  m_LocalEulerAnglesHint: {x: 0, y: 0, z: 0}
--- !u!1001 &1836950659
Prefab:
  m_ObjectHideFlags: 0
  serializedVersion: 2
  m_Modification:
    m_TransformParent: {fileID: 0}
    m_Modifications:
    - target: {fileID: 400000, guid: 45a7c5631d9b74a5984dfe39b48e0199, type: 2}
      propertyPath: m_LocalPosition.x
      value: -1.79999995
      objectReference: {fileID: 0}
    - target: {fileID: 400000, guid: 45a7c5631d9b74a5984dfe39b48e0199, type: 2}
      propertyPath: m_LocalPosition.y
      value: .558304369
      objectReference: {fileID: 0}
    - target: {fileID: 400000, guid: 45a7c5631d9b74a5984dfe39b48e0199, type: 2}
      propertyPath: m_LocalPosition.z
      value: 0
      objectReference: {fileID: 0}
    - target: {fileID: 400000, guid: 45a7c5631d9b74a5984dfe39b48e0199, type: 2}
      propertyPath: m_LocalRotation.x
      value: 0
      objectReference: {fileID: 0}
    - target: {fileID: 400000, guid: 45a7c5631d9b74a5984dfe39b48e0199, type: 2}
      propertyPath: m_LocalRotation.y
      value: 0
      objectReference: {fileID: 0}
    - target: {fileID: 400000, guid: 45a7c5631d9b74a5984dfe39b48e0199, type: 2}
      propertyPath: m_LocalRotation.z
      value: 0
      objectReference: {fileID: 0}
    - target: {fileID: 400000, guid: 45a7c5631d9b74a5984dfe39b48e0199, type: 2}
      propertyPath: m_LocalRotation.w
      value: 1
      objectReference: {fileID: 0}
    - target: {fileID: 400000, guid: 45a7c5631d9b74a5984dfe39b48e0199, type: 2}
      propertyPath: m_RootMapOrder
      value: 
      objectReference: {fileID: 0}
    - target: {fileID: 400000, guid: 45a7c5631d9b74a5984dfe39b48e0199, type: 2}
      propertyPath: m_RootOrder
      value: 1
      objectReference: {fileID: 0}
    - target: {fileID: 100000, guid: 45a7c5631d9b74a5984dfe39b48e0199, type: 2}
      propertyPath: m_IsActive
      value: 1
      objectReference: {fileID: 0}
    - target: {fileID: 6000000, guid: 45a7c5631d9b74a5984dfe39b48e0199, type: 2}
      propertyPath: m_Enabled
      value: 1
      objectReference: {fileID: 0}
    m_RemovedComponents: []
  m_ParentPrefab: {fileID: 100100000, guid: 45a7c5631d9b74a5984dfe39b48e0199, type: 2}
  m_RootGameObject: {fileID: 1213048128}
  m_IsPrefabParent: 0
--- !u!1 &2023186529
GameObject:
  m_ObjectHideFlags: 0
  m_PrefabParentObject: {fileID: 100002, guid: 391c165bd56fb1849ba1e689e121d662, type: 2}
  m_PrefabInternal: {fileID: 814021708}
  serializedVersion: 5
  m_Component:
  - component: {fileID: 2023186530}
  - component: {fileID: 2023186531}
  m_Layer: 0
  m_Name: ColumnSpawner
  m_TagString: Untagged
  m_Icon: {fileID: 0}
  m_NavMeshLayer: 0
  m_StaticEditorFlags: 0
  m_IsActive: 1
--- !u!4 &2023186530
Transform:
  m_ObjectHideFlags: 0
  m_PrefabParentObject: {fileID: 400002, guid: 391c165bd56fb1849ba1e689e121d662, type: 2}
  m_PrefabInternal: {fileID: 814021708}
  m_GameObject: {fileID: 2023186529}
  m_LocalRotation: {x: 0, y: 0, z: 0, w: 1}
  m_LocalPosition: {x: 10, y: 0, z: 0}
  m_LocalScale: {x: 1, y: 1, z: 1}
  m_Children: []
  m_Father: {fileID: 1096749126}
  m_RootOrder: 1
  m_LocalEulerAnglesHint: {x: 0, y: 0, z: 0}
--- !u!114 &2023186531
MonoBehaviour:
  m_ObjectHideFlags: 0
  m_PrefabParentObject: {fileID: 11400002, guid: 391c165bd56fb1849ba1e689e121d662,
    type: 2}
  m_PrefabInternal: {fileID: 814021708}
  m_GameObject: {fileID: 2023186529}
  m_Enabled: 1
  m_EditorHideFlags: 0
  m_Script: {fileID: 11500000, guid: fb9db8485ccb24efebb0303a66c6a577, type: 3}
  m_Name: 
  m_EditorClassIdentifier: 
  columnPrefab: {fileID: 100002, guid: 9ff31c15a0ffe488d81cc242b06dca72, type: 2}
  columnPoolSize: 7
  spawnRate: 4
  columnMin: -1
  columnMax: 3.5
